<?xml version="1.0" standalone="no"?>
<!DOCTYPE svg PUBLIC "-//W3C//DTD SVG 1.1//EN" "http://www.w3.org/Graphics/SVG/1.1/DTD/svg11.dtd" >
<!--
2017-8-31: Created with FontForge (http://fontforge.org)
-->
<svg xmlns="http://www.w3.org/2000/svg" xmlns:xlink="http://www.w3.org/1999/xlink" version="1.1">
<metadata>
Created by FontForge 20160405 at Thu Aug 31 09:16:36 2017
 By Apache
Copyright (c) 2017, Apache
</metadata>
<defs>
<font id="Flaticon" horiz-adv-x="512" >
  <font-face 
    font-family="Flaticon"
    font-weight="400"
    font-stretch="normal"
    units-per-em="512"
    panose-1="2 0 5 3 0 0 0 0 0 0"
    ascent="448"
    descent="-64"
    bbox="-0.000147091 -64.001 512.104 463.876"
    underline-thickness="25.6"
    underline-position="-51.2"
    unicode-range="U+0020-F11F"
  />
    <missing-glyph />
    <glyph glyph-name="space" unicode=" " horiz-adv-x="200" 
 />
    <glyph glyph-name="uniF113" unicode="&#xf113;" 
d="M0 448h512v-512h-512v512zM479.008 126.992v129.008h-127.008v-129.008h127.008zM320 126.992v129.008h-128v-129.008h128zM320 96h-128v-128h128v128zM32 256v-128.992h128v128.992h-128zM192 288h128v126.992h-128v-126.992zM160 414.992h-128v-126.992h128v126.992z
M32 96v-128h128v128h-128zM352 -32h127.008v128h-127.008v-128zM479.008 288v126.992h-127.008v-126.992h127.008z" />
    <glyph glyph-name="uniF118" unicode="&#xf118;" 
d="M41.6748 -20.7383c-8.73242 0 -16.2734 7.14453 -16.2734 15.876v363.56c0 9.12891 7.14453 16.2734 16.2734 16.2734h83.3486v13.8916c0 9.12793 7.14355 16.2725 16.2725 16.2725s16.2734 -7.14453 16.2734 -16.2725v-13.8916h199.243v13.8916
c0 9.12793 7.14453 16.2725 16.2725 16.2725c9.12891 0 16.2734 -7.14453 16.2734 -16.2725v-13.8916h80.5703c9.12891 0 16.2725 -7.14453 16.2725 -16.2734v-363.162c0 -9.12891 -7.14355 -16.2734 -16.2725 -16.2734h-428.254zM57.9473 342.425v-42.0713h396.105v42.0713
h-64.6943v-8.73145c0 -9.12891 -7.14453 -16.2734 -16.2734 -16.2734c-9.12793 0 -16.2725 7.14453 -16.2725 16.2734v8.73145h-199.243v-8.73145c0 -9.12891 -7.14453 -16.2734 -16.2734 -16.2734s-16.2725 7.14453 -16.2725 16.2734v8.73145h-67.0762zM57.9473 267.808
v-256.396h395.709v256.396h-395.709zM373.085 193.19c9.12891 0 16.2734 -7.14355 16.2734 -16.2725s-7.14453 -16.2734 -16.2734 -16.2734h-234.17c-9.12891 0 -16.2734 7.14453 -16.2734 16.2734s7.14453 16.2725 16.2734 16.2725h234.17zM256 114.604
c9.12891 0 16.2725 -7.14355 16.2725 -16.2725s-7.14355 -16.2734 -16.2725 -16.2734h-117.085c-9.12891 0 -16.2734 7.14453 -16.2734 16.2734s7.14453 16.2725 16.2734 16.2725h117.085z" />
    <glyph glyph-name="uniF110" unicode="&#xf110;" 
d="M275.448 279.715c0 14.4668 11.7275 26.1953 26.1953 26.1953c14.4668 0 26.1953 -11.7285 26.1953 -26.1953c0 -14.4678 -11.7285 -26.1953 -26.1953 -26.1953c-14.4678 0 -26.1953 11.7275 -26.1953 26.1953zM25.4014 -26.2949v0.793945
c0 1.19043 -0.396484 2.77832 -0.396484 3.96875v107.163v320.298c0 9.12891 7.14355 16.2725 16.2725 16.2725h428.255c9.12793 0 16.2725 -7.14355 16.2725 -16.2725v-321.092v-107.162c0 -9.12891 -7.14453 -16.2734 -16.2725 -16.2734h-429.445
c-1.19043 0 -2.38184 0 -3.57227 0.397461c0 0 -0.396484 0.396484 -0.793945 0.396484c-0.396484 0.396484 -0.396484 0.396484 -0.793945 0.396484c-0.396484 0.397461 -1.19043 0.397461 -1.58691 0.793945c0 0.397461 -0.397461 0.397461 -0.397461 0.397461
l-0.396484 0.396484c-0.397461 0.397461 -0.793945 0.397461 -1.19043 0.793945c0 0 0 0.396484 -0.397461 0.396484c-0.396484 0.397461 -0.396484 0.397461 -0.793945 0.793945l-0.396484 0.397461c-0.397461 0.793945 -1.19043 1.19043 -1.58789 1.98438
l-0.396484 0.396484c0 0.397461 -0.397461 0.397461 -0.397461 0.793945c0 0.397461 -0.396484 0.397461 -0.396484 0.793945c-0.397461 0.793945 -0.793945 1.98438 -1.19043 2.77832c-0.397461 0 -0.397461 0 -0.397461 0.396484v0zM454.449 -5.65625v84.1436
l-93.668 89.3018l-265.129 -173.445h358.797zM57.5508 389.656v-274.654l147.249 92.874c6.35059 3.96875 14.6855 3.1748 20.2422 -2.38184l52.7871 -53.1836l75.8086 50.0088c6.34961 3.96875 14.6846 3.1748 20.2412 -1.98438l80.5703 -76.998v266.319h-396.898z
M57.5508 76.502v-68.2666l192.496 125.817l-38.8965 39.293z" />
    <glyph glyph-name="uniF112" unicode="&#xf112;" 
d="M256 416c-124.8 0 -224 -99.2002 -224 -224s99.2002 -224 224 -224s224 99.2002 224 224s-99.2002 224 -224 224zM256 448v0c140.8 0 256 -115.2 256 -256s-115.2 -256 -256 -256s-256 115.2 -256 256s115.2 256 256 256zM256 25.5996
c-64 0 -121.6 38.4004 -147.2 99.2002l28.7998 12.7998c19.2002 -48 67.2002 -76.7998 118.4 -76.7998s99.2002 32 118.4 76.7998l28.7998 -12.7998c-25.6006 -64 -83.2002 -99.2002 -147.2 -99.2002zM224 256c0 -17.6641 -14.3359 -32 -32 -32s-32 14.3359 -32 32
s14.3359 32 32 32s32 -14.3359 32 -32zM352 256c0 -17.6641 -14.3359 -32 -32 -32s-32 14.3359 -32 32s14.3359 32 32 32s32 -14.3359 32 -32z" />
    <glyph glyph-name="uniF102" unicode="&#xf102;" 
d="M488.399 -44c5.52246 0 10 -4.47656 10 -10s-4.47754 -10 -10 -10h-464.799c-5.52246 0 -10 4.47656 -10 10s4.47754 10 10 10h23.1162v90.2041c0 14.8223 12.0596 26.8818 26.8818 26.8818h49.0254c14.8223 0 26.8818 -12.0586 26.8818 -26.8818v-90.2041h55.6924
v174.175c0 14.8223 12.0586 26.8818 26.8818 26.8818h49.0234c14.8232 0 26.8828 -12.0586 26.8828 -26.8818v-174.175h55.6914v318.464c0 14.8223 12.0596 26.8818 26.8818 26.8818h49.0244c14.8223 0 26.8818 -12.0586 26.8818 -26.8818v-318.464h21.9336zM129.504 -44
v90.2041c0 3.79492 -3.08691 6.88184 -6.88184 6.88184h-49.0244c-3.79492 0 -6.88184 -3.08691 -6.88184 -6.88184v-90.2041h62.7881zM287.985 -44v174.175c0 3.79492 -3.08789 6.88184 -6.88281 6.88184h-49.0234c-3.79492 0 -6.88184 -3.08691 -6.88184 -6.88184
v-174.175h62.7881zM446.466 -44v318.464c0 3.79492 -3.08691 6.88184 -6.88184 6.88184h-49.0244c-3.79492 0 -6.88184 -3.08691 -6.88184 -6.88184v-318.464h62.7881zM466.442 437.484c0.00683594 -0.162109 0.0234375 -0.321289 0.0234375 -0.484375v-56.9531
c0 -5.52246 -4.47656 -10 -10 -10c-5.52246 0 -10 4.47754 -10 10v33.8105l-105.928 -105.928c-3.90625 -3.9043 -10.2383 -3.9043 -14.1436 0l-37.2793 37.2803l-172.698 -172.699c-1.95215 -1.95312 -4.51172 -2.92871 -7.07129 -2.92871
c-2.55859 0 -5.11816 0.975586 -7.07031 2.92676c-3.90527 3.90625 -3.90527 10.2383 0 14.1436l179.769 179.77c1.875 1.875 4.41895 2.92871 7.07129 2.92871c2.65137 0 5.19531 -1.05371 7.07031 -2.92871l37.2803 -37.2803l98.8574 98.8584h-37.3574
c-5.52246 0 -10 4.47656 -10 10s4.47754 10 10 10h60.5c0.164062 0 0.323242 -0.0166016 0.484375 -0.0244141c2.72852 0.141602 5.50391 -0.819336 7.58789 -2.90332s3.04395 -4.85938 2.9043 -7.58789zM65.6396 144.69c0 5.52246 4.47754 10 10 10
c5.52344 0 10 -4.47754 10 -10c0 -5.52344 -4.47656 -10 -10 -10c-5.52246 0 -10 4.47656 -10 10z" />
    <glyph glyph-name="uniF11A" unicode="&#xf11a;" 
d="M25.7988 7.83887c0 0.793945 0 1.19043 -0.397461 1.58789v0.792969v363.561c0 9.12793 7.14453 16.2725 16.2734 16.2725h427.063c9.12793 0 16.2725 -7.14453 16.2725 -16.2725v-363.561v-0.792969v-1.58789c0 -0.793945 -0.396484 -1.19043 -0.396484 -1.58789
c0 -0.396484 -0.397461 -1.19043 -0.397461 -1.58789c0 -0.792969 0 -1.19043 -0.396484 -1.58691c-0.397461 -0.793945 -0.397461 -1.19043 -0.793945 -1.58789c-0.396484 -0.396484 -0.396484 -0.793945 -0.793945 -1.19043
c0 -0.397461 -0.396484 -0.793945 -0.793945 -1.19043c-0.396484 -0.397461 -0.793945 -0.793945 -1.19043 -1.19141l-0.396484 -0.396484c0 -0.397461 -0.397461 -0.397461 -0.397461 -0.397461c-1.19043 -0.792969 -2.77832 -1.58691 -4.36621 -2.38086
c-0.396484 -0.397461 -0.396484 -0.397461 -0.792969 -0.397461c-1.58789 -0.396484 -3.17578 -0.792969 -4.7627 -0.792969v0h-428.255v0c-1.58789 0 -3.1748 0.396484 -4.7627 0.792969c-0.396484 0.397461 -0.396484 0.397461 -0.793945 0.397461
c-1.58691 0.396484 -3.1748 1.19043 -4.36523 2.38086c0 0.397461 -0.397461 0.397461 -0.397461 0.397461l-0.396484 0.396484l-1.19141 1.19141c0 0.396484 -0.396484 0.792969 -0.792969 1.19043c-0.397461 0.396484 -0.397461 0.793945 -0.793945 1.19043
c-0.397461 0.793945 -0.397461 1.19043 -0.793945 1.58789c0 0.793945 -0.397461 1.19043 -0.397461 1.58691c0 0.397461 -0.396484 1.19141 -0.396484 1.58789c-0.396484 0.793945 -0.396484 1.19043 -0.396484 1.58789zM76.6016 26.4932h358.797l-120.261 143.678
l-50.0088 -34.9277c-2.77832 -1.98438 -5.9541 -2.77832 -9.12891 -2.77832s-6.35059 0.793945 -9.12891 2.77832l-50.0088 34.9277zM454.053 55.0693h-0.396484v211.944l-111.926 -78.1885zM58.3438 357.507v-51.2002l198.053 -137.724l197.656 137.724v51.2002h-395.709z
M58.3438 267.014v-211.944l111.926 133.756z" />
    <glyph glyph-name="uniF115" unicode="&#xf115;" 
d="M76.4502 448h249.35c4.08203 0 7.76465 -1.8418 10.417 -4.49414l109.351 -109.557c2.85938 -2.44727 4.49414 -6.12988 4.49414 -10.2246v-373.418c0 -7.76562 -6.54102 -14.3066 -14.5117 -14.3066h-359.1c-7.9707 0 -14.5117 6.54102 -14.5117 14.3066v483.181
c0 7.97168 6.54102 14.5127 14.5117 14.5127v0zM340.312 398.746v-60.7021h60.4961zM311.287 419.182h-220.324v-454.363h330.28v344.394h-95.4434c-7.9707 0 -14.5127 6.54199 -14.5127 14.5127v95.457z" />
    <glyph glyph-name="uniF100" unicode="&#xf100;" 
d="M362.667 448c29.3975 0 53.333 -23.9355 53.333 -53.334v-448c0 -4.30859 -2.60254 -8.21289 -6.5918 -9.85645c-1.32324 -0.554688 -2.70996 -0.810547 -4.0752 -0.810547c-2.77344 0 -5.50391 1.08789 -7.55176 3.11523l-141.781 141.803l-141.781 -141.781
c-3.05078 -3.05078 -7.6377 -3.98828 -11.627 -2.30371c-3.98926 1.62207 -6.5918 5.52637 -6.5918 9.83496v448c0 29.418 23.9355 53.333 53.333 53.333h213.334zM394.667 -27.5635h-0.000976562v422.23c0 17.6426 -14.3574 32 -32 32h-213.333
c-17.6426 0 -32 -14.3574 -32 -32v-422.251l131.115 131.115c2.09082 2.09082 4.82031 3.13574 7.55176 3.13574s5.46094 -1.0459 7.55176 -3.11523z" />
    <glyph glyph-name="uniF116" unicode="&#xf116;" 
d="M256 80.4717c-61.5195 0 -111.132 50.0088 -111.132 111.132c0 61.1221 50.0098 111.132 111.132 111.132s111.132 -50.0098 111.132 -111.132c0 -61.123 -49.6123 -111.132 -111.132 -111.132zM256 270.586c-43.6592 0 -78.9834 -35.3242 -78.9834 -78.9824
c0 -43.6592 35.3242 -78.9834 78.9834 -78.9834s78.9834 35.3242 78.9834 78.9834c0 43.6582 -35.3242 78.9824 -78.9834 78.9824zM272.272 354.332c0 -9.12891 -7.14355 -16.2734 -16.2725 -16.2734s-16.2725 7.14453 -16.2725 16.2734v51.2002
c0 9.12793 7.14355 16.2725 16.2725 16.2725s16.2725 -7.14453 16.2725 -16.2725v-51.2002zM239.728 28.874c0 9.12891 7.14355 16.2734 16.2725 16.2734s16.2725 -7.14453 16.2725 -16.2734v-51.1992c0 -9.12891 -7.14355 -16.2734 -16.2725 -16.2734
s-16.2725 7.14453 -16.2725 16.2734v51.1992zM382.611 295.193c-3.17578 -3.1748 -7.14453 -4.7627 -11.5107 -4.7627c-4.36523 0 -8.33496 1.58789 -11.5098 4.7627c-6.35059 6.35059 -6.35059 16.6699 0 23.0205l36.1182 36.1182
c6.34961 6.35059 16.6689 6.35059 23.0195 0s6.35059 -16.6699 0 -23.0205zM93.2715 28.874c-6.35059 6.35059 -6.35059 16.6699 0 23.0205l36.1172 36.1182c6.35059 6.34961 16.6699 6.34961 23.0205 0c6.35059 -6.35059 6.35059 -16.6699 0 -23.0205l-36.1182 -36.1182
c-3.1748 -3.1748 -7.54102 -4.7627 -11.5098 -4.7627c-4.36621 0 -8.33496 1.58789 -11.5098 4.7627zM486.201 191.604c0 -9.12891 -7.54102 -16.2734 -16.2725 -16.2734h-51.2002c-9.12891 0 -16.2725 7.14453 -16.2725 16.2734c0 9.12793 7.14355 16.2725 16.2725 16.2725
h51.2002c9.12891 0 16.2725 -7.14453 16.2725 -16.2725zM42.0713 175.33c-8.73145 0 -16.2725 7.14453 -16.2725 16.2734c0 9.12793 7.14355 16.2725 16.2725 16.2725h51.2002c9.12891 0 16.2725 -7.14453 16.2725 -16.2725c0 -9.12891 -7.14355 -16.2734 -16.2725 -16.2734
h-51.2002zM407.219 24.1113c-3.96875 0 -8.33496 1.58789 -11.5098 4.7627l-36.1182 36.1182c-6.35059 6.35059 -6.35059 16.6699 0 23.0205c6.35059 6.34961 16.6699 6.34961 23.0205 0l36.1172 -36.1182c6.35059 -6.35059 6.35059 -16.6699 0 -23.0205
c-3.1748 -3.1748 -7.54102 -4.7627 -11.5098 -4.7627zM152.409 295.193c-3.1748 -3.1748 -7.14453 -4.7627 -11.5098 -4.7627c-4.36621 0 -8.33496 1.58789 -11.5107 4.7627l-36.1172 36.1182c-6.35059 6.35059 -6.35059 16.6699 0 23.0205s16.6699 6.35059 23.0195 0
l36.1182 -36.1182c6.35059 -6.35059 6.35059 -16.6699 0 -23.0205z" />
    <glyph glyph-name="uniF10E" unicode="&#xf10e;" 
d="M471.119 -5.65625c9.12891 0 16.2734 -7.14355 16.2734 -16.2725s-7.14453 -16.2725 -16.2734 -16.2725h-430.238c-9.12891 0 -16.2734 7.14355 -16.2734 16.2725v428.254c0 9.12891 7.14453 16.2734 16.2734 16.2734s16.2725 -7.14453 16.2725 -16.2734v-411.981
h413.966zM471.119 422.599c9.12891 0 16.2734 -7.54102 16.2734 -16.2734v-353.24c0 -9.12793 -7.14453 -16.2725 -16.2734 -16.2725h-355.225c-9.12891 0 -16.2725 7.14453 -16.2725 16.2725v353.24c0 9.12891 7.14355 16.2734 16.2725 16.2734h355.225zM454.847 68.9609
v321.092h-322.68v-321.092h322.68z" />
    <glyph glyph-name="uniF11C" unicode="&#xf11c;" 
d="M74.2197 -38.2012c-8.73145 0 -16.2725 7.14355 -16.2725 16.6689v321.092v0.793945c0.396484 1.19043 0.396484 2.38184 0.793945 3.57227c0 0.396484 0 1.19043 0.396484 1.58691c0.793945 1.58789 1.58789 3.17578 2.77832 4.36621l90.8906 107.163
c0.792969 1.19043 1.98438 1.98438 3.1748 2.77832c0.396484 0.396484 0.793945 0.396484 1.19043 0.793945c1.19043 0.396484 1.98438 0.793945 3.17578 1.19043c0 0 0.396484 0.396484 0.792969 0.396484c1.19141 0.397461 2.77832 0.397461 3.96973 0.397461h272.67
c9.12793 0 16.2725 -7.14453 16.2725 -16.2734v-428.254c0 -9.12891 -7.14453 -16.2725 -16.2725 -16.2725h-363.561zM148.837 361.873l-39.6895 -46.834h39.6895v46.834zM90.4932 282.89v-288.546h331.014v395.709h-240.124v-90.8896
c0 -9.12891 -7.14453 -16.2734 -16.2725 -16.2734h-74.6172zM373.085 247.565c9.12891 0 16.2734 -7.14355 16.2734 -16.2725s-7.14453 -16.2725 -16.2734 -16.2725h-234.17c-9.12891 0 -16.2734 7.14355 -16.2734 16.2725s7.14453 16.2725 16.2734 16.2725h234.17z
M373.085 168.979c9.12891 0 16.2734 -7.54102 16.2734 -16.2725c0 -9.12891 -7.14453 -16.2725 -16.2734 -16.2725h-234.17c-9.12891 0 -16.2734 7.14355 -16.2734 16.2725s7.14453 16.2725 16.2734 16.2725h234.17z" />
    <glyph glyph-name="uniF101" unicode="&#xf101;" 
d="M230.883 386.583c-2.5332 3.60059 -1.65039 8.58301 1.9502 11.1172c3.59961 2.53223 8.58301 1.66602 11.1162 -1.93359l12.0674 -17.1006l12.083 17.1006c2.5332 3.59961 7.5166 4.46582 11.1162 1.93359c3.59961 -2.53418 4.4668 -7.5166 1.93359 -11.1172
l-18.5674 -26.2832c-0.517578 -0.766602 -1.18359 -1.4502 -1.98242 -2c-3.59961 -2.5332 -8.58301 -1.66602 -11.1172 1.93359zM388.016 26.667c0 -4.41602 -3.58301 -8 -8 -8c-4.41602 0 -8 3.58398 -8 8v124c0 32.0488 -12.9824 61.0654 -33.9326 82.0166
l-0.015625 0.0166016l-0.0166016 -0.0166016c-20.9834 20.9834 -50 33.9668 -82.0332 33.9668c-32.0166 0 -61.0342 -12.9834 -82.0166 -33.9668l-0.400391 -0.366211c-20.75 -20.917 -33.583 -49.7832 -33.583 -81.6504v-157.317h240c4.41602 0 8 -3.58301 8 -8
c0 -4.41602 -3.58398 -8 -8 -8h-247.783h-0.216797c-4.41699 0 -8 3.58398 -8 8v165.317c0 36.1826 14.5996 68.999 38.2168 92.8486l0.450195 0.483398c23.8838 23.8672 56.8838 38.667 93.333 38.667c36.4502 0 69.4668 -14.7832 93.3506 -38.667l-0.0341797 -0.0166016
c23.9004 -23.8994 38.6836 -56.9004 38.6836 -93.3164l-0.00195312 -123.999v0zM206.683 88.6836c0 4.41699 3.58398 8 8 8c4.41699 0 8 -3.58301 8 -8c0 -9.19824 3.75 -17.5488 9.7666 -23.5654c6.03418 -6.03418 14.3672 -9.7666 23.5674 -9.7666
s17.5498 3.75 23.5674 9.7666c6.0166 6.0166 9.76562 14.3672 9.76562 23.5654c0 9.2002 -3.7168 17.5332 -9.7168 23.5674l-0.0332031 0.0341797c-6.0332 5.99902 -14.3672 9.71582 -23.5674 9.71582c-10.7324 0 -20.4824 4.38281 -27.5488 11.4502l-0.0175781 -0.0166016
c-7.0498 7.0498 -11.416 16.8174 -11.416 27.583c0 10.7676 4.36621 20.5342 11.416 27.584l0.550781 0.499023c7.0166 6.7666 16.5498 10.917 27.0166 10.917c10.7666 0 20.5332 -4.36719 27.583 -11.418c7.0498 -7.0498 11.416 -16.8164 11.416 -27.583
c0 -4.41699 -3.58301 -8 -8 -8c-4.41602 0 -8 3.58301 -8 8c0 6.34961 -2.58301 12.1006 -6.7334 16.2666c-4.15039 4.15039 -9.91699 6.7334 -16.2666 6.7334c-6.15039 0 -11.75 -2.39941 -15.833 -6.2998l-0.400391 -0.433594
c-4.14941 -4.16602 -6.7334 -9.91699 -6.7334 -16.2666s2.58301 -12.0996 6.7334 -16.2666l-0.0166016 -0.015625l0.0166016 -0.0166016c4.13379 -4.13379 9.88281 -6.7002 16.25 -6.7002c13.583 0 25.9326 -5.5332 34.8496 -14.4502l0.0332031 -0.0332031
c8.91699 -8.91699 14.4512 -21.2666 14.4512 -34.8506c0 -13.6328 -5.53418 -25.9668 -14.4512 -34.8828c-8.91602 -8.91699 -21.2656 -14.4502 -34.8994 -14.4502c-13.6162 0 -25.9668 5.5332 -34.8838 14.4502c-8.93262 8.89941 -14.4658 21.25 -14.4658 34.8828z
M248.016 212.667c0 4.41699 3.58398 8 8 8c4.41797 0 8 -3.58301 8 -8v-186c0 -4.41602 -3.58301 -8 -8 -8c-4.39941 0 -8 3.58398 -8 8v186zM285.867 310.4c-2.2002 -3.81738 -7.10059 -5.11719 -10.9004 -2.91699c-3.81641 2.2002 -5.11621 7.09961 -2.91699 10.9004
l55.6504 96.3828c-9.73438 4.9834 -20.083 9 -30.9004 11.8828c-12.9668 3.4834 -26.6514 5.33398 -40.7832 5.33398c-14.1328 0 -27.8164 -1.85059 -40.7998 -5.33398c-10.7998 -2.88281 -21.1494 -6.88281 -30.8828 -11.8662l55.6494 -96.3828
c2.2002 -3.81738 0.900391 -8.7002 -2.91699 -10.9004c-3.7998 -2.2002 -8.7002 -0.899414 -10.8994 2.90039l-59.7334 103.467c-2.2002 3.81641 -0.900391 8.69922 2.89941 10.916c12.9668 7.50098 26.9834 13.3838 41.75 17.334
c14.3672 3.83301 29.4502 5.88281 44.9326 5.88281c15.4834 0 30.5674 -2.0498 44.917 -5.89941c14.7158 -3.91699 28.666 -9.78418 41.6006 -17.2168l0.182617 -0.0996094c3.7998 -2.2002 5.11621 -7.10059 2.91699 -10.9004zM277.85 306.5
c-4.36719 0.599609 -7.41699 4.63281 -6.81641 9c0.599609 4.36719 4.63281 7.41699 9 6.81641c42.4336 -5.88379 79.9668 -27.1504 106.783 -57.9834l0.0166016 0.0166016c26.4658 -30.4336 42.5 -70.2002 42.5 -113.683v-206.667c0 -4.41699 -3.58398 -8 -8 -8h-0.216797
h-330.449c-4.41699 0.000976562 -8 3.58398 -8 8.00098v0.21582v206.45c0 34.833 10.3154 67.3154 28.0498 94.5c18.2832 28.0664 44.4834 50.5 75.3994 64.1494c4.0332 1.78418 8.75 -0.0498047 10.5332 -4.09961c1.7832 -4.0332 -0.0498047 -8.75 -4.09961 -10.5332
c-28.083 -12.3828 -51.8662 -32.7666 -68.4658 -58.1992c-16.0508 -24.6504 -25.417 -54.1348 -25.417 -85.8174v-198.65h314.666v198.65c0 39.4824 -14.5332 75.582 -38.5498 103.183l0.015625 0.0166016l-0.015625 0.0166016
c-24.3174 27.9844 -58.4004 47.2842 -96.9336 52.6172v0zM233.766 306.467c-4.38184 -0.416992 -8.29883 2.7832 -8.73242 7.15039c-0.416992 4.38281 2.7832 8.29883 7.16602 8.71582l0.0839844 0.0166016c4.38281 0.416992 8.2998 -2.7832 8.73242 -7.16602
c0.433594 -4.36719 -2.78223 -8.28418 -7.14941 -8.7168h-0.100586z" />
    <glyph glyph-name="uniF10C" unicode="&#xf10c;" 
d="M468.907 233.396c11.4229 0 20.6816 -9.26074 20.6816 -20.6836v-20.8418c-0.0380859 -65.3984 -25.5361 -126.857 -71.7979 -173.066c-46.2256 -46.1729 -107.664 -71.5996 -172.993 -71.5996h-0.143555c-65.3877 0.0380859 -126.846 25.5361 -173.056 71.7979
s-71.6357 107.75 -71.5986 173.136c0.0380859 65.3887 25.5361 126.848 71.7979 173.056c46.2266 46.1719 107.664 71.5996 172.993 71.5996h0.143555c34.5039 -0.0185547 67.9766 -7.14941 99.4922 -21.1924c10.4346 -4.64941 15.1221 -16.876 10.4746 -27.3086
c-4.65039 -10.4326 -16.873 -15.124 -27.3096 -10.4736c-26.1895 11.6689 -54.0078 17.5947 -82.6797 17.6104h-0.120117c-54.293 0 -105.344 -21.1279 -143.761 -59.5c-38.4463 -38.4014 -59.6367 -89.4756 -59.667 -143.812
c-0.0644531 -112.173 91.1416 -203.482 203.313 -203.546h0.120117c54.2939 0 105.344 21.1279 143.761 59.5c38.4453 38.3994 59.6357 89.4736 59.666 143.812v20.8311c0 11.4219 9.25977 20.6826 20.6826 20.6826zM505.942 408.197
c8.07617 -8.07715 8.07617 -21.1719 0 -29.249l-246.521 -246.523c-4.03906 -4.03906 -9.33203 -6.05762 -14.625 -6.05762s-10.5869 2.01855 -14.625 6.05762l-67.2344 67.2344c-8.07617 8.07715 -8.07617 21.1719 0 29.249s21.1729 8.07715 29.248 0l52.6094 -52.6094
l231.899 231.898c8.07617 8.07617 21.1719 8.07617 29.249 0z" />
    <glyph glyph-name="uniF111" unicode="&#xf111;" 
d="M70.251 -21.5322h0.397461v322.68c-25.7988 7.14355 -44.8496 30.958 -44.8496 59.1377c0 33.7363 26.9883 61.5195 61.1221 61.5195s61.5195 -27.7832 61.5195 -61.5195c0 -28.5762 -19.4482 -52.3906 -45.6436 -59.5352v-322.282
c0 -9.12793 -7.14453 -16.2725 -16.2725 -16.2725c-9.12891 0 -16.2734 7.14453 -16.2734 16.2725zM57.5508 360.285c0 -15.876 13.0977 -28.9736 28.9736 -28.9736s28.9736 13.0977 28.9736 28.9736s-13.0977 28.9736 -28.9736 28.9736
s-28.9736 -13.0977 -28.9736 -28.9736zM255.604 421.805c9.12793 0 16.2725 -7.14453 16.2725 -16.2725v-166.698c26.1953 -7.14453 45.6436 -30.958 45.6436 -59.5352c0 -28.5762 -19.4482 -52.3906 -45.6436 -59.5342v-141.693
c0 -9.12891 -7.14453 -16.2725 -16.2725 -16.2725c-9.12891 0 -16.2734 7.14355 -16.2734 16.2725v141.693c-25.7979 7.14355 -44.8496 30.958 -44.8496 59.1377s19.0518 51.9941 44.8496 59.1377v167.492c0 9.12793 7.14453 16.2725 16.2734 16.2725zM285.37 178.902
c0 16.2725 -13.0977 28.9736 -28.9736 28.9736s-28.9736 -13.0977 -28.9736 -28.9736s13.0977 -28.9736 28.9736 -28.9736s28.9736 13.0977 28.9736 28.9736zM440.955 82.8525c26.1953 -7.14355 45.6436 -30.958 45.2461 -59.1377
c0 -34.1338 -27.3857 -61.5195 -61.5186 -61.5195c-34.1338 0 -61.5195 27.7832 -61.5195 61.5195c0 28.1797 19.0508 51.9941 45.2461 59.1377v322.68c0 9.12793 7.14453 16.2725 16.2734 16.2725c9.12793 0 16.2725 -7.14453 16.2725 -16.2725v-322.68zM425.079 -5.25879
c15.876 0 28.9736 13.0977 28.9736 28.9736s-13.0977 28.9736 -28.9736 28.9736s-28.9736 -13.0977 -28.9736 -28.9736s13.0977 -28.9736 28.9736 -28.9736z" />
    <glyph glyph-name="uniF109" unicode="&#xf109;" 
d="M501.698 423.814c6.37695 -3.70117 10.3018 -10.5166 10.3018 -17.8896v-342.281c0 -7.4209 -3.97656 -14.2734 -10.4199 -17.957l-149.748 -85.5693c-3.17285 -1.8125 -6.71484 -2.72559 -10.2617 -2.72559c-3.16406 0 -6.33203 0.725586 -9.24902 2.18359
l-161.24 80.6201l-140.137 -80.0781c-6.40137 -3.6582 -14.2656 -3.63086 -20.6436 0.0673828c-6.37598 3.70215 -10.3008 10.5176 -10.3008 17.8896v342.281c0 7.42188 3.97656 14.2734 10.4199 17.958l149.748 85.5693c6.00391 3.43164 13.3252 3.63379 19.5107 0.541016
l161.24 -80.6201l140.137 80.0791c6.40137 3.6582 14.2676 3.63184 20.6426 -0.0683594zM470.636 75.6475h-0.000976562v294.639l-118.804 -67.8877c-6.00293 -3.43066 -13.3242 -3.63477 -19.5107 -0.541016l-161.24 80.6182l-129.716 -74.123v-294.639l118.805 67.8867
c3.17285 1.81348 6.71484 2.72559 10.2617 2.72559c3.16406 0 6.33203 -0.725586 9.24902 -2.18359l161.24 -80.6191zM170.43 426.607c11.4219 0 20.6826 -9.26074 20.6826 -20.6826v-342.281c0 -11.4229 -9.26074 -20.6816 -20.6826 -20.6816
s-20.6816 9.25879 -20.6816 20.6816v342.281c0 11.4219 9.25977 20.6826 20.6816 20.6826zM341.57 341.037c11.4229 0 20.6816 -9.25977 20.6816 -20.6816v-342.281c0 -11.4219 -9.25879 -20.6826 -20.6816 -20.6826s-20.6826 9.25977 -20.6826 20.6826v342.281
c0 11.4219 9.25977 20.6816 20.6826 20.6816z" />
    <glyph glyph-name="uniF10D" unicode="&#xf10d;" 
d="M490.013 -45.1533c0 -10.3652 -8.48145 -18.8467 -18.8467 -18.8467h-386.356c-10.3652 0 -18.8467 8.48145 -18.8467 18.8467v94.2334c0 10.3652 8.48145 18.8467 18.8467 18.8467c10.3662 0 18.8467 -8.48145 18.8467 -18.8467v-75.3867h348.662v273.59
c-0.942383 -0.313477 -2.19824 -0.313477 -3.14062 -0.313477h-135.067c-10.3652 0 -18.8467 8.48047 -18.8467 18.8467v144.49h-191.607v-191.607c0 -10.3652 -8.48047 -18.8467 -18.8467 -18.8467c-10.3652 0 -18.8467 8.48145 -18.8467 18.8467v210.454
c0 10.3652 8.48145 18.8467 18.8467 18.8467h234.641c4.71191 0 9.42383 -1.88477 12.8789 -5.02539l151.716 -141.036c3.76953 -3.45508 5.96777 -8.48047 5.96777 -13.8213v-333.271zM332.957 390.831v-106.169h114.022zM21.9873 137.03
c0 10.3662 8.48145 18.8467 18.8467 18.8467h197.263l-61.5654 54.6553c-7.85352 6.91016 -8.48145 18.8467 -1.57129 26.6992c6.91016 7.85352 18.8467 8.48047 26.6992 1.57129l98.001 -87.3223c4.08496 -3.76953 6.2832 -8.79492 6.2832 -14.1348
c0 -5.34082 -2.2002 -10.6797 -6.2832 -14.1357l-98.002 -87.3232c-3.76953 -3.14062 -8.16602 -4.71094 -12.5645 -4.71094c-5.33984 0 -10.3652 2.19922 -14.1348 6.28223c-6.91016 7.85254 -6.28125 19.7891 1.57129 26.6992l60.6221 54.0264h-196.318
c-10.3652 0 -18.8467 8.48145 -18.8467 18.8467z" />
    <glyph glyph-name="uniF10A" unicode="&#xf10a;" 
d="M433.313 119.675c-0.0283203 -0.0683594 -0.0566406 -0.134766 -0.0869141 -0.201172c-2.41406 -5.47168 -1.29004 -11.7637 2.86133 -16.0586l1.18555 -1.18457c24.75 -24.7246 24.7715 -64.9893 0.0410156 -89.749
c-12.0137 -12.0264 -27.9492 -18.6367 -44.9014 -18.6465h-0.0371094c-16.9404 -0.000976562 -32.8662 6.59082 -44.8516 18.5635l-1.22754 1.22656c-4.29492 4.15234 -10.5879 5.27539 -16.0586 2.86035c-0.0673828 -0.0292969 -0.133789 -0.0576172 -0.203125 -0.0878906
c-5.35742 -2.2959 -8.83301 -7.5459 -8.85742 -13.376v-3.55273c-0.000976562 -34.9941 -28.4717 -63.4658 -63.4678 -63.4658c-34.9951 0 -63.4668 28.4717 -63.4668 63.4678v1.63184c-0.21582 5.95898 -3.95117 11.1211 -9.5625 13.1846
c-0.40918 0.151367 -0.8125 0.314453 -1.21094 0.489258c-5.46973 2.41602 -11.7627 1.29004 -16.0566 -2.86035l-1.18652 -1.18652c-24.7051 -24.7344 -64.9268 -24.7754 -89.6914 -0.0966797c-0.0292969 0.0283203 -0.0595703 0.0585938 -0.0888672 0.0888672
c-11.9941 11.9795 -18.6045 27.915 -18.6133 44.8672c-0.00976562 16.9336 6.56836 32.8594 18.5234 44.8477c0.0283203 0.0273438 0.0546875 0.0556641 0.0820312 0.0839844l1.18555 1.18359c4.15234 4.2959 5.27637 10.5889 2.86133 16.0586
c-0.0292969 0.0673828 -0.0585938 0.134766 -0.0878906 0.204102c-2.2959 5.35742 -7.54492 8.83301 -13.375 8.85742h-3.55371c-34.9971 -0.00195312 -63.4688 28.4688 -63.4688 63.4648c0 34.9951 28.4717 63.4668 63.4658 63.4668h1.63281
c5.95898 0.214844 11.1201 3.95117 13.1836 9.56152c0.151367 0.40918 0.313477 0.8125 0.490234 1.21191c2.41406 5.4707 1.29004 11.7627 -2.8623 16.0576l-1.18457 1.18555c-11.9863 11.9717 -18.5967 27.9053 -18.6055 44.8584
c-0.0107422 16.9531 6.58203 32.8945 18.5635 44.8877c12.0137 12.0273 27.9492 18.6387 44.9014 18.6475h0.0371094c16.9404 0 32.8652 -6.59082 44.8516 -18.5635l1.22656 -1.22754c4.29492 -4.15137 10.5889 -5.27539 16.0576 -2.86035
c1.36816 0.602539 2.79297 1.05469 4.25 1.34961c4.01172 2.66406 6.50391 7.18164 6.52441 12.1133v3.55469c0 34.9951 28.4707 63.4668 63.4658 63.4668c34.9961 0 63.4678 -28.4717 63.4678 -63.4668v-1.92578c0.0224609 -5.74609 3.5 -10.9971 8.85742 -13.293
c0.0673828 -0.0292969 0.135742 -0.0585938 0.204102 -0.0878906c5.4707 -2.41406 11.7637 -1.29004 16.0576 2.86133l1.18457 1.18555c11.9727 11.9863 27.9072 18.5967 44.8604 18.6055h0.0361328c16.9395 0 32.8662 -6.59082 44.8525 -18.5635
c0.03125 -0.0322266 0.0615234 -0.0634766 0.09375 -0.0947266c11.9551 -11.9746 18.5449 -27.8828 18.5537 -44.8066c0.0117188 -16.9531 -6.58301 -32.8955 -18.5625 -44.8887c-0.0302734 -0.03125 -0.0615234 -0.0625 -0.0927734 -0.0927734l-1.13477 -1.13379
c-4.15234 -4.29492 -5.27539 -10.5879 -2.86035 -16.0576c0.602539 -1.36816 1.05371 -2.79297 1.34863 -4.25c2.66504 -4.01172 7.18262 -6.50391 12.1143 -6.52441h3.55371c34.9961 0 63.4678 -28.4717 63.4678 -63.4668s-28.4717 -63.4668 -63.4678 -63.4668h-1.9248
c-5.74707 -0.0224609 -10.998 -3.5 -13.2939 -8.85742zM406.577 74.4248c-16.0684 16.4287 -20.4746 40.6182 -11.2373 61.6475c8.81934 20.459 28.8975 33.7314 51.1846 33.8193h2.00684c12.1875 0 22.1025 9.91602 22.1025 22.1025
c0 12.1875 -9.91406 22.1025 -22.1025 22.1025h-3.63574c-22.4082 0.0888672 -42.5166 13.4062 -51.3115 33.9277c-0.756836 1.76562 -1.2627 3.625 -1.50586 5.52148c-7.09961 20.0664 -2.29102 42.3174 12.7881 57.7344
c0.0546875 0.0546875 0.107422 0.108398 0.161133 0.161133l1.2832 1.28418c0.0214844 0.0214844 0.0419922 0.0410156 0.0625 0.0615234c4.14844 4.17285 6.43262 9.70898 6.42871 15.5967c-0.00292969 5.9043 -2.30469 11.4531 -6.4834 15.626
c-0.0224609 0.0234375 -0.046875 0.046875 -0.0693359 0.0712891c-4.16895 4.14551 -9.70215 6.42773 -15.583 6.42773h-0.0136719c-5.90234 -0.00292969 -11.4521 -2.30566 -15.625 -6.48242l-1.29199 -1.29102
c-0.0546875 -0.0537109 -0.108398 -0.107422 -0.162109 -0.161133c-16.4297 -16.0684 -40.6143 -20.4766 -61.6504 -11.2383c-20.4609 8.81836 -33.7324 28.8975 -33.8203 51.1846v2.00781c0 12.1865 -9.91602 22.1025 -22.1035 22.1025
c-12.1865 0 -22.1016 -9.91504 -22.1016 -22.1016v-3.63672c-0.0888672 -22.4082 -13.4072 -42.5166 -33.9277 -51.3115c-1.76562 -0.757812 -3.625 -1.2627 -5.52051 -1.50488c-20.0674 -7.09961 -42.3174 -2.29102 -57.7344 12.7881
c-0.0537109 0.0537109 -0.108398 0.107422 -0.162109 0.161133l-1.2832 1.2832c-4.19922 4.19531 -9.74609 6.49121 -15.6465 6.49121h-0.0126953c-5.9043 -0.00292969 -11.4531 -2.30566 -15.626 -6.48242c-4.20605 -4.21094 -6.50293 -9.7627 -6.49902 -15.666
c0.00292969 -5.90332 2.30469 -11.4521 6.48242 -15.626l1.29102 -1.29199c0.0537109 -0.0537109 0.107422 -0.107422 0.160156 -0.161133c15.9424 -16.2988 20.4043 -40.2324 11.4561 -61.1484c-8.1377 -21.373 -28.0859 -35.4912 -51 -36.0273
c-0.161133 -0.00390625 -0.323242 -0.00585938 -0.484375 -0.00585938h-1.92578c-12.1865 -0.000976562 -22.1025 -9.91602 -22.1025 -22.1035c0 -12.1865 9.91504 -22.1025 22.1025 -22.1025h3.63672c22.3701 -0.0898438 42.4492 -13.3613 51.2666 -33.8213
c9.23535 -21.0342 4.83008 -45.2227 -11.2393 -61.6494c-0.0527344 -0.0546875 -0.106445 -0.108398 -0.160156 -0.163086l-1.23828 -1.23828c-0.0244141 -0.0234375 -0.046875 -0.0478516 -0.0712891 -0.0712891c-4.17188 -4.17676 -6.46875 -9.72754 -6.46484 -15.6318
c0.00390625 -5.88379 2.29004 -11.416 6.44141 -15.584c0.0234375 -0.0244141 0.0498047 -0.0488281 0.0742188 -0.0742188c8.62305 -8.6123 22.6465 -8.60352 31.2578 0.0185547l1.29199 1.29199c0.0546875 0.0527344 0.108398 0.106445 0.162109 0.15918
c16.2979 15.9424 40.2344 20.4062 61.1504 11.4561c21.373 -8.1377 35.4912 -28.0869 36.0273 -50.999c0.00390625 -0.162109 0.00585938 -0.323242 0.00585938 -0.484375v-1.9248c0 -12.1875 9.91504 -22.1025 22.1016 -22.1025c12.1885 0 22.1035 9.91406 22.1035 22.1025
v3.63574c0.0898438 22.3691 13.3594 42.4463 33.8184 51.2646c21.0342 9.23828 45.2217 4.83301 61.6523 -11.2363c0.0546875 -0.0546875 0.108398 -0.107422 0.162109 -0.161133l1.2832 -1.2832c4.19922 -4.19531 9.74609 -6.49121 15.6465 -6.49121h0.0126953
c5.9043 0.00292969 11.4541 2.30469 15.626 6.4834c8.64648 8.65527 8.6377 22.6777 0.0166016 31.292l-1.29102 1.29102c-0.0527344 0.0537109 -0.106445 0.107422 -0.160156 0.161133zM255.998 276.859c46.791 0 84.8604 -38.0684 84.8604 -84.8604
c0 -46.791 -38.0684 -84.8594 -84.8604 -84.8594c-46.791 0 -84.8594 38.0684 -84.8594 84.8594c0 46.792 38.0693 84.8604 84.8594 84.8604zM255.998 148.506c23.9844 0 43.4951 19.5117 43.4951 43.4951c0 23.9824 -19.5107 43.4941 -43.4951 43.4941
c-23.9824 0 -43.4941 -19.5117 -43.4941 -43.4941c0 -23.9844 19.5117 -43.4951 43.4941 -43.4951z" />
    <glyph glyph-name="uniF11B" unicode="&#xf11b;" 
d="M469.929 -6.05273c9.12891 0 16.2725 -7.14453 16.2725 -16.2725c0 -9.12891 -7.14355 -16.2734 -16.2725 -16.2734h-428.254c-9.12891 0 -16.2734 7.14453 -16.2734 16.2734v428.254c0 9.12891 7.14453 16.2725 16.2734 16.2725
c9.12793 0 16.2725 -7.14355 16.2725 -16.2725v-411.981h411.981zM215.517 56.6572c0 -9.12891 -7.14453 -16.2725 -16.2734 -16.2725s-16.2725 7.14355 -16.2725 16.2725v234.171c0 9.12891 7.14355 16.2725 16.2725 16.2725s16.2734 -7.14355 16.2734 -16.2725v-234.171z
M136.931 56.6572c0 -9.12891 -7.14453 -16.2725 -16.2734 -16.2725s-16.2725 7.14355 -16.2725 16.2725v234.171c0 9.12891 7.14355 16.2725 16.2725 16.2725s16.2734 -7.14355 16.2734 -16.2725v-234.171zM372.688 56.6572c0 -9.12891 -7.14453 -16.2725 -16.2734 -16.2725
c-9.12793 0 -16.2725 7.14355 -16.2725 16.2725v234.171c0 9.12891 7.14453 16.2725 16.2725 16.2725c9.12891 0 16.2734 -7.14355 16.2734 -16.2725v-234.171zM451.274 56.6572c0 -9.12891 -7.14453 -16.2725 -16.2725 -16.2725
c-9.12891 0 -16.2734 7.14355 -16.2734 16.2725v117.085c0 9.12891 7.14453 16.2734 16.2734 16.2734c9.12793 0 16.2725 -7.14453 16.2725 -16.2734v-117.085zM294.103 56.6572c0 -9.12891 -7.14453 -16.2725 -16.2734 -16.2725
c-9.12793 0 -16.2725 7.14355 -16.2725 16.2725v117.085c0 9.12891 7.14453 16.2734 16.2725 16.2734c9.12891 0 16.2734 -7.14453 16.2734 -16.2734v-117.085z" />
    <glyph glyph-name="uniF108" unicode="&#xf108;" 
d="M439.026 448c40.2373 0 72.9736 -32.7373 72.9736 -72.9746v-366.052c0 -40.2373 -32.7363 -72.9736 -72.9746 -72.9736h-366.051c-40.2373 0 -72.9746 32.7363 -72.9746 72.9746v366.051c0 40.2373 32.7373 72.9746 72.9746 72.9746h366.052zM470.636 8.97461v366.051
c0 17.4297 -14.1807 31.6104 -31.6104 31.6104h-366.051c-17.4297 0 -31.6104 -14.1807 -31.6104 -31.6104v-366.052c0 -17.4287 14.1807 -31.6094 31.6104 -31.6094h366.052c17.4287 0 31.6094 14.1807 31.6094 31.6104zM491.318 291.121
c11.4229 0 20.6816 -9.25977 20.6816 -20.6816c0 -11.4229 -9.25879 -20.6826 -20.6816 -20.6826h-470.637c-11.4219 0 -20.6816 9.25977 -20.6816 20.6826c0 11.4219 9.25977 20.6816 20.6816 20.6816h470.637zM177.561 291.121
c11.4229 0 20.6826 -9.25977 20.6826 -20.6816v-313.758c0 -11.4229 -9.25977 -20.6816 -20.6826 -20.6816c-11.4219 0 -20.6816 9.25879 -20.6816 20.6816v313.758c0 11.4219 9.25977 20.6816 20.6816 20.6816z" />
    <glyph glyph-name="uniF119" unicode="&#xf119;" 
d="M418.729 355.522c0.397461 -0.396484 0.397461 -1.19043 0.793945 -1.58789c41.2773 -41.6738 66.6787 -98.8271 66.6787 -161.935c0 -127.008 -103.193 -230.201 -230.201 -230.201s-230.201 103.193 -230.201 230.201c0 63.1074 25.4014 120.657 66.6787 161.935
c0.396484 0.397461 0.396484 0.793945 0.793945 1.19141c0.793945 0.396484 1.19043 0.396484 1.58789 0.792969c41.6738 40.8809 98.4307 66.2822 161.141 66.2822s119.467 -25.0039 161.141 -65.4883c0.397461 -0.396484 1.19141 -0.793945 1.58789 -1.19043z
M256 -6.05273c103.591 0 188.924 80.1738 196.465 181.78h-140.899c-6.74707 -24.2109 -29.3701 -42.0713 -55.9619 -42.0713c-26.5928 0 -48.8193 17.8604 -55.9629 42.0713h-140.899c8.33496 -101.606 93.668 -181.78 197.259 -181.78zM230.201 192
c0 -14.2881 11.5107 -25.7988 25.7988 -25.7988s25.7988 11.5107 25.7988 25.7988s-11.5107 25.7988 -25.7988 25.7988s-25.7988 -11.5107 -25.7988 -25.7988zM311.963 208.272h141.296c-3.1748 42.4688 -20.2422 81.3652 -46.4375 111.926l-30.5605 -30.5605
c-3.17578 -3.17578 -7.54102 -4.76367 -11.5107 -4.76367c-4.36523 0 -8.33496 1.58789 -11.5098 4.76367c-6.35059 6.34961 -6.35059 16.6689 0 23.0195l30.1641 30.5615c-30.5605 25.7979 -69.0605 42.4678 -111.132 46.04v-43.2617
c0 -9.12891 -7.14355 -16.2734 -16.2725 -16.2734s-16.2725 7.14453 -16.2725 16.2734v43.2617c-42.0713 -3.57227 -80.5713 -20.2422 -111.132 -46.04l30.5605 -30.5615c6.35059 -6.35059 6.35059 -16.6699 0 -23.0195
c-3.1748 -3.17578 -7.54102 -4.76367 -11.5098 -4.76367c-4.36621 0 -8.33496 1.58789 -11.5098 4.76367l-30.5615 30.5605c-26.5918 -30.5605 -43.2617 -69.457 -46.834 -111.926h141.296c7.14453 24.2109 29.3711 42.0713 55.9629 42.0713
c2.38184 0 5.16016 0 7.54102 -0.396484l44.0557 100.415c3.57227 8.33496 13.0977 11.9072 21.4326 8.33496c8.33496 -3.57129 11.9072 -13.0977 8.33496 -21.4326l-44.0557 -100.415c8.73145 -7.14453 15.4785 -17.0664 18.6543 -28.5771z" />
    <glyph glyph-name="uniF105" unicode="&#xf105;" 
d="M137.448 -22.5283c-76.5918 4.85645 -137.448 68.5283 -137.448 146.312c0 80.9434 65.8398 146.792 146.792 146.792c13.9199 0 27.7275 -1.95215 40.9922 -5.80859c8.73535 -2.52734 13.7354 -11.6475 11.208 -20.3594
c-2.52051 -8.7041 -11.6318 -13.7119 -20.3525 -11.2002c-10.3193 2.99219 -21.0156 4.50391 -31.8477 4.50391c-62.8164 0 -113.92 -51.1123 -113.92 -113.928c0 -62.8164 51.0957 -113.912 113.92 -113.912h259.28c0.368164 0 0.671875 -0.183594 1.03125 -0.208008
c0.352539 0.0244141 0.648438 0.208008 1.02441 0.208008c39.2158 0 71.0957 33.4639 71.0957 74.6084c0 38.6631 -30.2314 70.1035 -68.2559 72.6719c-0.727539 -8.39258 -7.55176 -15.0566 -16.168 -15.0566c-9.07227 0 -16.4238 7.36035 -16.4238 16.4404
c0 34.3604 -27.9443 62.3115 -62.2959 62.3115c-9.0957 0 -16.4482 7.36035 -16.4482 16.4326c0 9.08008 7.35254 16.4316 16.4482 16.4316c41.2715 0 76.4004 -26.4639 89.5439 -63.2803c0.167969 0 0.288086 0.0878906 0.456055 0.0878906
c58.4717 0 106.023 -47.5674 106.023 -106.039c0 -59.2646 -46.6475 -107.48 -103.968 -107.48c-0.375977 0 -0.671875 0.183594 -1.02344 0.208008c-0.360352 -0.0244141 -0.664062 -0.208008 -1.03223 -0.208008h-266.288c-0.839844 0 -1.53613 0.351562 -2.34375 0.47168
zM256.048 80.9678c-9.08789 0 -16.4316 7.36035 -16.4316 16.4404v257.552l-43.8643 -43.8721c-3.20801 -3.20801 -7.41602 -4.81543 -11.6162 -4.81543s-8.41602 1.60742 -11.6162 4.81543c-6.42383 6.41602 -6.42383 16.8242 0 23.2402l70.8809 70.8877
c6.40723 6.41602 16.8154 6.41602 23.2393 0l70.8965 -70.8955c6.41602 -6.41602 6.41602 -16.8164 0 -23.2402c-3.20801 -3.20801 -7.42383 -4.81641 -11.6162 -4.81641c-4.2002 0 -8.41602 1.6084 -11.624 4.81641l-41.8154 41.8164v-255.496
c0 -9.08008 -7.34473 -16.4326 -16.4326 -16.4326z" />
    <glyph glyph-name="uniF114" unicode="&#xf114;" 
d="M509.066 353.623c2.60742 -2.60742 3.47656 -6.95215 2.6084 -10.4297c-7.82129 -25.2012 -23.4639 -43.4512 -42.583 -53.0107v-2.60742c0 -167.724 -125.141 -304.162 -278.091 -304.162c-86.0342 0 -155.557 14.7744 -186.842 39.9766
c-3.47656 3.47559 -5.21484 7.82129 -3.47656 13.0352c1.73828 4.3457 6.08301 7.82129 11.2979 7.82129c51.2725 0.869141 84.2959 13.0352 109.497 27.8096c-48.666 6.08398 -79.082 29.5469 -94.7246 73.8682c-1.73828 4.3457 0 8.68945 3.47656 11.2969
c3.47559 2.6084 8.68945 2.6084 12.166 0.869141c13.0352 -8.69043 26.0713 -10.4287 41.7129 -10.4287c-33.0225 19.9873 -63.4395 53.0117 -75.6055 93.8555c-0.869141 4.3457 0.869141 9.55859 4.3457 11.2979c4.34473 2.60645 8.69043 1.7373 12.166 -0.869141
c9.55957 -7.82129 19.9883 -13.0361 35.6309 -15.6426c-33.8926 34.7617 -54.749 86.0342 -25.2021 142.521l5.21484 10.4287l8.68848 -8.69043c53.8799 -56.4873 103.415 -82.5576 193.795 -99.9385v3.47559c0 63.4395 49.5342 115.582 111.236 116.451
c24.332 0 58.2246 -17.3809 72.1289 -25.2021c0.870117 0 1.73926 -0.869141 1.73926 0c17.3809 5.21289 38.2373 13.9033 62.5693 24.333c3.47754 1.7373 7.82227 0.868164 10.4297 -1.73926s3.47656 -6.08301 1.73828 -10.4287
c-4.3457 -12.166 -11.2969 -25.2021 -21.7266 -37.3682l17.3809 6.08398c3.47754 0.869141 7.82227 0 10.4287 -2.60645zM456.925 304.088c16.5117 6.08301 26.0713 19.1182 32.1543 30.4141l-33.8916 -11.2969c-4.3457 -1.73828 -9.55859 0 -11.2979 4.3457
c-1.73828 4.34473 -0.869141 9.55957 2.60742 12.166c13.9033 11.2979 24.332 23.4648 32.1533 36.5c-17.3809 -6.95215 -33.0225 -13.0352 -46.0586 -17.3809c-5.21289 -1.7373 -10.4277 -0.868164 -15.6426 1.73828c-9.55859 5.21484 -42.582 23.4648 -62.5693 22.5957
c-52.1426 -0.869141 -93.8555 -45.1904 -93.8555 -99.0703v-24.333l-10.4297 1.73926c-95.5928 17.3799 -148.604 42.582 -204.223 97.3311c-26.0713 -66.0469 27.8086 -112.105 46.0586 -125.141l21.7256 -15.6436h-26.9404c-17.3809 0 -36.499 1.73828 -53.8799 9.55957
c19.1191 -39.9746 58.2256 -69.5225 91.249 -79.082l-2.60742 -17.3809c-6.95117 0 -13.9043 0 -20.8564 -0.869141c-18.25 -0.869141 -34.7617 -0.869141 -50.4033 4.3457c17.3809 -33.0234 47.7969 -46.9277 97.3311 -46.9277h26.0713l-21.7256 -15.6426
c-26.9404 -20.8564 -61.7021 -39.9756 -121.665 -44.3213c28.6777 -13.9043 81.6875 -26.9404 160.771 -26.9404c143.39 0 260.71 128.617 260.71 286.781v14.7744z" />
    <glyph glyph-name="uniF103" unicode="&#xf103;" 
d="M160.348 -33.4385c-3.17578 -3.17578 -7.14453 -4.7627 -11.5107 -4.7627c-4.36523 0 -8.33496 1.58691 -11.5098 4.7627c-6.35059 6.35059 -6.35059 16.6699 0 23.0195l202.419 202.419l-202.419 202.419c-6.35059 6.34961 -6.35059 16.6689 0 23.0195
s16.6699 6.35059 23.0205 0l213.929 -213.929c6.34961 -6.34961 6.34961 -16.6699 0 -23.0195z" />
    <glyph glyph-name="uniF11F" unicode="&#xf11f;" 
d="M432.281 448c20.1348 0 36.5156 -16.3887 36.5156 -36.5156v-379.135c0 -20.126 -16.3809 -36.5146 -36.5156 -36.5146h-33.2314v-23.3193c0 -20.127 -16.3828 -36.5156 -36.5156 -36.5156h-282.816c-20.1318 0 -36.5146 16.3887 -36.5146 36.5156v379.134
c0 20.127 16.3828 36.5156 36.5146 36.5156h33.2412v23.3193c0 20.127 16.3828 36.5156 36.5146 36.5156h282.808zM369.839 -27.4844v0v23.3203h-220.365c-20.1318 0 -36.5146 16.3887 -36.5146 36.5146v326.603h-33.2412c-4.02051 0 -7.30371 -3.27832 -7.30371 -7.30371
v-379.134c0 -4.02246 3.2832 -7.30469 7.30371 -7.30469h282.816c4.02148 0 7.30469 3.28125 7.30469 7.30469zM439.586 32.3496h-0.000976562v379.135c0 4.02441 -3.27441 7.30469 -7.30469 7.30469h-282.807c-4.02832 0 -7.30273 -3.2793 -7.30273 -7.30469v-379.135
c0 -4.02148 3.27344 -7.30371 7.30273 -7.30371h282.808c4.0293 0 7.30469 3.28223 7.30469 7.30371zM397.985 357.285c8.06543 0 14.6064 -6.54688 14.6035 -14.6055c0 -8.07324 -6.53809 -14.6064 -14.6055 -14.6064h-214.213
c-8.06543 0 -14.6064 6.53223 -14.6064 14.6064c0 8.05957 6.54004 14.6055 14.6064 14.6055h214.215zM397.985 287.764c8.06543 0 14.6064 -6.54395 14.6035 -14.6045c0 -8.07129 -6.53809 -14.6064 -14.6055 -14.6064h-214.213
c-8.06543 0 -14.6064 6.53418 -14.6064 14.6064c0 8.06152 6.54004 14.6045 14.6064 14.6045h214.215zM397.985 218.246c8.06543 0 14.6064 -6.54688 14.6035 -14.6084c0 -8.07129 -6.53809 -14.6045 -14.6055 -14.6045h-214.213
c-8.06543 0 -14.6064 6.5332 -14.6064 14.6045c0 8.06152 6.54004 14.6084 14.6064 14.6084h214.215zM397.985 148.724c8.06543 0 14.6064 -6.54688 14.6035 -14.6045c0 -8.07422 -6.53809 -14.6064 -14.6055 -14.6064h-214.213
c-8.06543 0 -14.6064 6.53027 -14.6064 14.6064c0 8.05762 6.54004 14.6045 14.6064 14.6045h214.215z" />
    <glyph glyph-name="uniF107" unicode="&#xf107;" 
d="M473.104 -5.65625c9.12891 0 16.6699 -7.54102 16.6699 -16.2725s-7.14355 -16.2725 -16.2725 -16.2725h-434.604c-8.73242 0 -16.2734 7.54102 -16.2734 16.2725s7.14453 16.2725 16.2734 16.2725h434.207zM22.623 138.419c0 4.36523 1.98438 8.33496 4.7627 11.5098
l212.738 212.341l53.1846 53.582c6.74707 6.34961 17.0664 6.34961 23.417 0l76.2051 -76.999c6.34961 -6.74707 6.34961 -17.0664 0 -23.417l-265.923 -265.923c-3.1748 -3.1748 -7.14453 -4.7627 -11.5098 -4.7627l-76.999 -0.396484
c-4.36523 0 -8.33496 1.58789 -11.5098 4.7627c-3.17578 3.1748 -4.7627 7.54102 -4.7627 11.9072zM305.216 380.924l-30.165 -30.1641l53.582 -53.5811l30.1641 30.1641zM55.5654 131.274l-0.396484 -53.5811l53.9785 0.396484l196.068 195.672l-53.582 53.5811z" />
    <glyph glyph-name="uniF11D" unicode="&#xf11d;" 
d="M41.6748 240.024h29.3701c4.36621 17.4639 11.1133 33.7373 20.2422 48.8193l-20.6387 20.6387c-6.35059 6.35059 -6.35059 16.6699 0 23.0195l44.8496 45.2471c6.34961 6.35059 16.6689 6.35059 23.0195 0l21.0361 -21.0361
c15.082 8.73242 31.3545 15.4795 48.4219 19.8457v29.7666c0 9.12891 7.14355 16.2734 16.2725 16.2734h63.5039c9.12891 0 16.2725 -7.14453 16.2725 -16.2734v-29.7666c17.0674 -4.76367 33.3398 -11.5107 48.4219 -20.2422l21.0361 21.0352
c6.35059 6.35059 16.6699 6.35059 23.0195 0l45.2471 -44.4521c6.35059 -6.35059 6.35059 -16.6699 0 -23.0205l-21.4326 -21.4326c8.73145 -15.082 15.4785 -30.958 19.8447 -48.0244h30.1641c9.12891 0 16.2734 -7.14453 16.2734 -16.2734v-63.5039
c0 -9.12793 -7.14453 -16.2725 -16.2734 -16.2725h-30.1641c-4.36621 -17.0664 -11.1133 -32.9424 -19.8447 -48.0244l21.4326 -21.4326c6.35059 -6.35059 6.35059 -16.6699 0 -23.0205l-44.8496 -44.8496c-6.35059 -6.35059 -16.6699 -6.35059 -23.0205 0l-21.4326 21.4326
c-15.082 -8.73145 -30.958 -15.4795 -48.0244 -19.8447v-30.165c0 -9.12793 -7.14453 -16.2725 -16.2734 -16.2725h-63.5039c-9.12793 0 -16.2725 7.14453 -16.2725 16.2725v29.7676c-17.0664 4.36621 -33.3398 11.1133 -48.4219 19.8457l-21.0352 -21.0361
c-6.35059 -6.35059 -16.6699 -6.35059 -23.0205 0l-44.8496 44.8496c-6.35059 6.35059 -6.35059 16.6699 0 23.0205l20.6387 20.6387c-9.12891 15.082 -15.876 31.3545 -20.2422 48.4219h-29.7666c-9.12891 0 -16.2734 7.14355 -16.2734 16.2725v63.5039
c0 9.12891 7.14453 16.2725 16.2734 16.2725zM100.415 220.974c-1.58691 -7.9375 -8.33398 -13.4941 -15.876 -13.8916h-26.1953v-30.958h26.1953c7.93848 0 14.2891 -5.55664 15.876 -13.0977c4.36621 -21.8291 12.7012 -42.4678 25.4023 -60.7256
c4.36523 -6.35059 3.57129 -15.082 -1.98438 -20.6387l-18.6543 -18.6543l21.8291 -20.6387l18.6543 18.6543c5.55664 5.55664 14.2881 6.35059 20.6387 1.98438c18.2578 -12.7012 38.499 -21.0361 60.7256 -25.0049c7.9375 -1.19043 13.4941 -7.9375 13.4941 -15.876
v-26.5918h30.959v26.5918c0 7.54102 5.55664 14.2881 13.0977 15.876c21.8291 3.96875 42.0713 12.3037 60.3281 25.0049c6.35059 4.36621 15.082 3.57227 20.6387 -1.98438l19.0518 -19.0518l21.8291 21.8301l-19.0508 19.0508
c-5.55664 5.55664 -6.35059 14.2881 -1.98535 20.6387c12.7012 18.2578 21.0361 38.499 25.0049 60.3291c1.19141 7.54102 7.93848 13.0977 15.876 13.0977h26.9893v30.958h-26.9893c-7.54102 0 -14.2881 5.95312 -15.876 13.4941
c-4.36523 21.8301 -12.7002 42.0713 -25.0049 60.3291c-4.36523 6.35059 -3.57129 15.082 1.98535 20.6387l19.0508 19.0508l-21.8291 21.8301l-19.0518 -19.0518c-5.55664 -5.55566 -14.2881 -6.34961 -20.6387 -1.98438
c-18.2568 12.3047 -38.499 21.0361 -60.3281 25.0049c-7.54102 1.19043 -13.0977 7.93848 -13.0977 15.876v26.5928h-30.959v-26.5928c0 -7.9375 -5.95312 -14.2881 -13.4941 -15.876c-21.8291 -3.96875 -42.4678 -12.3037 -60.7256 -25.0049
c-6.35059 -4.36523 -15.082 -3.57129 -20.6387 1.98438l-18.6543 18.6543l-21.8291 -21.8291l18.2568 -18.6543c5.55664 -5.55664 6.35059 -14.2881 1.98438 -20.6387c-12.3037 -18.2578 -21.0352 -38.499 -25.0049 -60.7256zM255.604 78.0898
c-61.5195 0 -111.529 50.0098 -111.529 111.528c0 61.5195 50.0098 111.529 111.529 111.529c61.5186 0 111.528 -50.0098 111.528 -111.529c0 -61.5186 -50.0098 -111.528 -111.528 -111.528zM255.604 268.602c-43.6592 0 -78.9834 -35.3242 -78.9834 -78.9834
c0 -43.6582 35.3242 -78.9824 78.9834 -78.9824c43.6582 0 78.9824 35.3242 78.9824 78.9824c0 43.6592 -35.3242 78.9834 -78.9824 78.9834z" />
    <glyph glyph-name="uniF117" unicode="&#xf117;" 
d="M357.209 463.876c9.12891 0 16.2734 -7.14453 16.2734 -16.2725v-22.624h64.2979c9.12793 0 16.2725 -7.14355 16.2725 -16.2725v-428.651c0 -9.12891 -7.14453 -16.2725 -16.2725 -16.2725h-363.561c-9.12793 0 -16.2725 7.14355 -16.2725 16.2725v428.651
c0 9.12891 7.14453 16.2725 16.2725 16.2725h71.8389v22.624c0 9.12793 7.14453 16.2725 16.2734 16.2725h194.877zM178.604 408.707v-28.5771h162.332v28.5771v22.623h-162.332v-22.623zM421.507 392.435h-48.0244v-28.5771
c0 -9.12891 -7.14453 -16.2725 -16.2734 -16.2725h-194.877c-9.12891 0 -16.2734 7.14355 -16.2734 16.2725v28.5771h-55.5654v-396.105h331.014v396.105zM377.055 182.077c9.12793 0 16.2725 -7.14355 16.2725 -16.2725s-7.14453 -16.2725 -16.2725 -16.2725h-234.567
c-9.12891 0 -16.2734 7.14355 -16.2734 16.2725s7.14453 16.2725 16.2734 16.2725h234.567zM259.969 103.491c8.73242 0 15.876 -7.14355 15.876 -16.2725s-7.14355 -16.2734 -16.2725 -16.2734h-117.085c-9.12891 0 -16.2734 7.14453 -16.2734 16.2734
s7.14453 16.2725 16.2734 16.2725h117.481zM126.214 244.787c0 8.73242 7.14453 16.2734 16.2734 16.2734h234.567c9.12793 0 16.2725 -7.14453 16.2725 -16.2734c0 -9.12793 -7.14453 -16.2725 -16.2725 -16.2725h-234.567c-9.12891 0 -16.2734 7.14453 -16.2734 16.2725z
" />
    <glyph glyph-name="uniF11E" unicode="&#xf11e;" 
d="M41.6748 214.227c-8.73242 0 -16.2734 7.54102 -16.2734 16.2725v175.826c0 9.12891 7.14453 16.2734 16.2734 16.2734h175.826c9.12891 0 16.2725 -7.14453 16.2725 -16.2734v-175.826c0 -9.12891 -7.14355 -16.2725 -16.2725 -16.2725h-175.826zM57.9473 390.053
v-143.28h143.28v143.28h-143.28zM486.599 406.325v-175.826c0 -9.12891 -7.14453 -16.2725 -16.2734 -16.2725h-175.826c-9.12891 0 -16.2725 7.14355 -16.2725 16.2725v175.826c0 9.12891 7.14355 16.2734 16.2725 16.2734h175.826
c9.12891 0 16.2734 -7.14453 16.2734 -16.2734zM454.053 246.772v143.28h-143.28v-143.28h143.28zM41.6748 -38.5986c-8.73242 0 -16.2734 7.54102 -16.2734 16.2734v175.826c0 9.12891 7.14453 16.2725 16.2734 16.2725h175.826
c9.12891 0 16.2725 -7.14355 16.2725 -16.2725v-175.826c0 -9.12891 -7.14355 -16.2734 -16.2725 -16.2734h-175.826zM57.9473 137.228v-143.28h143.28v143.28h-143.28zM470.325 169.773c8.73242 0 16.2734 -7.54102 16.2734 -16.2725v-175.826
c0 -9.12891 -7.14453 -16.2734 -16.2734 -16.2734h-175.826c-9.12891 0 -16.2725 7.14453 -16.2725 16.2734v175.826c0 9.12891 7.14355 16.2725 16.2725 16.2725h175.826zM454.053 -6.05273v143.28h-143.28v-143.28h143.28z" />
    <glyph glyph-name="uniF106" unicode="&#xf106;" 
d="M227.82 -37.0107c-7.14453 2.77832 -11.1133 10.3193 -9.52539 17.8604l31.3545 180.986l-116.688 0.793945c-6.34961 0 -11.9062 3.57129 -14.6846 9.12793s-1.98535 12.3047 1.98438 17.0674l180.589 227.423c4.7627 5.95312 12.7012 7.93848 19.4482 4.7627
c6.74707 -3.1748 10.7158 -10.7158 9.12891 -17.8604l-30.5615 -161.935l105.575 -0.793945c5.95312 0 11.5098 -3.57227 14.2881 -8.73242c2.77832 -5.15918 2.38184 -11.9062 -1.19043 -16.6689l-170.27 -246.078c-3.17578 -4.7627 -8.33496 -7.14355 -13.4951 -7.14355
c-1.98438 0 -3.96875 0.396484 -5.95312 1.19043zM166.301 194.778l102.4 -0.793945c4.7627 0 9.12793 -1.98438 11.9062 -5.55664c3.17578 -3.57227 4.36621 -8.33496 3.57227 -13.0977l-21.8291 -127.802l110.734 160.348l-94.0645 0.396484
c-4.7627 0 -9.12891 2.38184 -12.3047 5.9541c-3.1748 3.96875 -4.36523 8.73145 -3.57129 13.4941l22.2256 117.086z" />
    <glyph glyph-name="uniF104" unicode="&#xf104;" 
d="M444.144 156.518c2.80176 -2.49023 4.40332 -6.06152 4.4043 -9.80957c0 -3.74805 -1.60059 -7.31738 -4.40332 -9.80859l-99.3369 -88.3545c-2.50098 -2.22461 -5.61719 -3.31934 -8.71973 -3.31934c-3.62012 0 -7.2207 1.48633 -9.81445 4.40332
c-4.82031 5.41797 -4.33398 13.7158 1.08398 18.5342l88.3076 78.5449l-88.3066 78.5459c-5.41797 4.81836 -5.90332 13.1162 -1.08398 18.5342c4.81738 5.41602 13.1133 5.90332 18.5322 1.08398zM184.644 68.1641c5.41699 -4.81836 5.90332 -13.1162 1.08398 -18.5342
c-2.59375 -2.91602 -6.19629 -4.40332 -9.81445 -4.40332c-3.10547 0 -6.21973 1.09473 -8.7207 3.31934l-99.3369 88.3545c-2.80078 2.49023 -4.40332 6.06055 -4.40332 9.80859s1.60254 7.31738 4.40332 9.80859l99.3369 88.3545
c5.41797 4.82031 13.7148 4.33398 18.5332 -1.08398c4.82031 -5.41797 4.33301 -13.7168 -1.08398 -18.5361l-88.3076 -78.5449zM287.374 251.388c6.94141 -2.10156 10.8623 -9.43066 8.75977 -16.3711l-55.1377 -182.045
c-1.71875 -5.66992 -6.92676 -9.3252 -12.5605 -9.3252c-1.26172 0 -2.54102 0.183594 -3.81055 0.566406c-6.93945 2.10254 -10.8613 9.43066 -8.75879 16.3711l55.1377 182.045c2.10254 6.93945 9.44043 10.8564 16.3701 8.75879zM498.872 448
c7.24902 0 13.1279 -5.87793 13.1279 -13.1279v-485.744c0 -7.25098 -5.87891 -13.1279 -13.1279 -13.1279h-485.744c-7.25 0 -13.1279 5.87695 -13.1279 13.1279v485.744c0 7.25 5.87793 13.1279 13.1279 13.1279h485.744zM105.026 421.744v-52.5127h301.948v52.5127
h-301.948zM26.2559 421.744v-52.5127h52.5127v52.5127h-52.5127zM485.744 -37.7441h-0.000976562v380.718h-459.487v-380.718h459.488zM485.744 369.231v52.5127h-52.5127v-52.5127h52.5127z" />
    <glyph glyph-name="uniF10F" unicode="&#xf10f;" 
d="M491.876 63.2998c12.7803 -11 20.124 -27.043 20.124 -43.9883c0 -9.25098 -7.5 -16.751 -16.751 -16.751h-158.969c-7.75195 -37.2188 -40.8008 -65.2676 -80.2803 -65.2676s-72.5254 28.0508 -80.2803 65.2676h-158.969c-9.25098 0 -16.751 7.5 -16.751 16.751
c0 16.8086 7.32617 32.8271 20.0967 43.9502c46.0635 39.7676 88.6387 95.8662 88.6387 236.193c0 81.1943 66.0664 147.249 147.273 147.249c81.1963 0 147.254 -66.0547 147.254 -147.249c0 -140.2 42.5908 -196.354 88.6133 -236.155zM256 -29.2041
c20.8604 0 38.6865 13.2422 45.5205 31.7646h-91.041c6.83398 -18.5225 24.6602 -31.7646 45.5205 -31.7646zM40.0996 36.0625h431.836c-0.611328 0.65625 -1.26172 1.2793 -1.94727 1.87207c-70.2637 60.7598 -100.23 138.965 -100.23 261.521
c0 62.7207 -51.0283 113.747 -113.751 113.747c-62.7324 0 -113.771 -51.0264 -113.771 -113.747c0 -122.667 -29.9629 -200.875 -100.19 -261.505c-0.685547 -0.59668 -1.33496 -1.22656 -1.94531 -1.8877z" />
    <glyph glyph-name="uniF10B" unicode="&#xf10b;" 
d="M500.562 328.155c7.00586 -3.50293 11.4326 -10.665 11.4336 -18.499c0 -7.83496 -4.42578 -14.9951 -11.4326 -18.499l-235.313 -117.656c-2.91016 -1.45508 -6.08105 -2.18262 -9.24902 -2.18262c-3.16992 0 -6.33789 0.727539 -9.25 2.18262l-235.313 117.656
c-7.00684 3.50293 -11.4326 10.665 -11.4326 18.499s4.42578 14.9951 11.4326 18.499l235.313 117.655c5.82227 2.91113 12.6758 2.91113 18.499 0zM256 215.123l189.065 94.5332l-189.066 94.5342l-189.066 -94.5342zM509.812 83.5928
c5.1084 -10.2168 0.967773 -22.6396 -9.24805 -27.749l-235.313 -117.657c-2.91113 -1.45312 -6.08203 -2.18164 -9.25 -2.18164c-3.16992 0 -6.33789 0.728516 -9.25 2.18359l-235.313 117.656c-10.2158 5.1084 -14.3574 17.5312 -9.24805 27.749
c5.10742 10.2148 17.5312 14.3564 27.7471 9.25l226.064 -113.032l226.063 113.031c10.2158 5.10449 22.6406 0.96582 27.748 -9.25zM509.812 201.25c5.1084 -10.2158 0.967773 -22.6396 -9.24902 -27.749l-235.312 -117.656
c-2.91113 -1.45508 -6.08203 -2.18359 -9.25 -2.18359c-3.16992 0 -6.33789 0.728516 -9.25 2.18359l-235.313 117.656c-10.2158 5.10938 -14.3574 17.5322 -9.24805 27.749c5.10742 10.2158 17.5312 14.3564 27.7471 9.24902l226.064 -113.031l226.063 113.031
c10.2158 5.10742 22.6406 0.966797 27.748 -9.24902z" />
  </font>
</defs></svg>
